{
  "entry": "src/cli.ts",
  "outfile": "dist/cli.js",
  "bundle": true,
  "minify": true,
  "target": "node14",
  "platform": "node",
  "external": [
    "yargs",
    "./index"
  ],
  "banner": {
    "js": "#!/usr/bin/env node"
  },
  "main-fields": "module,main"
}
